{
  "251635": [
    [
      34,
      34
    ]
  ],
  "251636": [
    [
      1,
      3
    ],
    [
      45,
      45
    ]
  ],
  "251637": [
    [
      1,
      6
    ]
  ],
  "251638": [
    [
      1,
      99
    ]
  ],
  "251640": [
    [
      1,
      7
    ],
    [
      123,
      123
    ]
  ],
  "251642": [
    [
      1,
      9
    ],
    [
      39,
      39
    ]
  ],
  "251643": [
    [
      1,
      606
    ]
  ],
  "251721": [
    [
      1,
      244
    ],
    [
      304,
      304
    ]
  ],
  "251781": [
    [
      67,
      68
    ]
  ]
}
